Project 4
…
# Tokenize all emails.
email_tokens_df <- email_df %>% 
    unnest_tokens(word, email) %>% 
    anti_join(stop_words)

## Joining, by = "word"

Look at some counts.

email_tokens_df %>% 
    count(word, sort = TRUE)

## # A tibble: 11,972 x 2
##    word      n
##    <chr> <int>
##  1 3d     3532
##  2 font   2718
##  3 br     1810
##  4 td     1493
##  5 http   1407
##  6 size   1055
##  7 tr      924
##  8 color   788
##  9 width   787
## 10 1       638
## # ... with 11,962 more rows
…
TD-IDF

Calculate term frequency and and inverse document frequency. Well need this for producing a DTM.

email_tf_idf <- email_tokens_df %>% 
  count(class, word, sort = TRUE) %>%
  ungroup() %>%
  bind_tf_idf(word, class, n)

email_tf_idf %>% 
  arrange(-tf_idf)

## # A tibble: 13,669 x 6
##    class word       n      tf   idf  tf_idf
##    <fct> <chr>  <int>   <dbl> <dbl>   <dbl>
##  1 spam  td      1493 0.0250  0.693 0.0173 
##  2 spam  tr       924 0.0155  0.693 0.0107 
##  3 spam  align    532 0.00891 0.693 0.00618
##  4 spam  height   450 0.00754 0.693 0.00522
##  5 spam  border   391 0.00655 0.693 0.00454
##  6 spam  img      315 0.00527 0.693 0.00366
##  7 spam  arial    308 0.00516 0.693 0.00358
##  8 ham   rpm       94 0.00439 0.693 0.00304
##  9 spam  span     249 0.00417 0.693 0.00289
## 10 ham   exmh      86 0.00402 0.693 0.00278
## # ... with 13,659 more rows
…
